vcd/riscV.vcd
$date
	Tue Feb  4 11:21:12 2020
$end
$version
	Icarus Verilog
$end
$timescale
	1ps
$end
$scope module load_store_test $end
$scope module TB $end
$scope module top_inst $end
$var wire 10 ! P1core_data_addr [9:0] $end
$var wire 4 " P1core_data_be [3:0] $end
$var wire 1 # P1core_data_req $end
$var wire 32 $ P1core_data_wdata [31:0] $end
$var wire 1 % P1core_data_we $end
$var wire 10 & P1core_prog_addr [9:0] $end
$var wire 1 ' P1core_prog_req $end
$var wire 1 ( P1core_prog_we $end
$var wire 1 ) clk $end
$var wire 1 * core_prog_we $end
$var wire 1 + rst_n $end
$var wire 32 , prog_mem_rdata [31:0] $end
$var wire 1 - data_mem_we $end
$var wire 32 . data_mem_wdata [31:0] $end
$var wire 32 / data_mem_rdata [31:0] $end
$var wire 1 0 data_mem_en $end
$var wire 4 1 data_mem_be [3:0] $end
$var wire 10 2 data_mem_addr [9:0] $end
$var wire 1 3 core_prog_rvalid $end
$var wire 1 4 core_prog_req $end
$var wire 32 5 core_prog_rdata [31:0] $end
$var wire 1 6 core_prog_gnt $end
$var wire 10 7 core_prog_addr [9:0] $end
$var wire 10 8 core_instr_addr [9:0] $end
$var wire 1 9 core_data_we $end
$var wire 32 : core_data_wdata [31:0] $end
$var wire 1 ; core_data_rvalid $end
$var wire 1 < core_data_req $end
$var wire 32 = core_data_rdata [31:0] $end
$var wire 1 > core_data_gnt $end
$var wire 4 ? core_data_be [3:0] $end
$var wire 10 @ core_data_addr [9:0] $end
$var wire 1 A P1core_prog_rvalid $end
$var wire 32 B P1core_prog_rdata [31:0] $end
$var wire 1 C P1core_prog_gnt $end
$var wire 1 D P1core_data_rvalid $end
$var wire 32 E P1core_data_rdata [31:0] $end
$var wire 1 F P1core_data_gnt $end
$scope module core_inst $end
$var wire 1 ) clk $end
$var wire 1 + rst_n $end
$var wire 4 G write_transfer_mem_data_o [3:0] $end
$var wire 1 H we_reg_file $end
$var wire 1 9 we_mem_data_o $end
$var wire 32 I val_mem_prog_i [31:0] $end
$var wire 32 J val_mem_data_write_o [31:0] $end
$var wire 32 K val_mem_data_read_i [31:0] $end
$var wire 1 ; rvalid_mem_data_i $end
$var wire 32 L rs2_reg_file [31:0] $end
$var wire 32 M rs1_reg_file [31:0] $end
$var wire 1 N req_mem_prog_o_intern $end
$var wire 1 O req_mem_data_o_intern $end
$var wire 32 P reg_pc [31:0] $end
$var wire 5 Q r_num_write_reg_file [4:0] $end
$var wire 5 R r2_num_read_reg_file [4:0] $end
$var wire 5 S r1_num_read_reg_file [4:0] $end
$var wire 32 T pc [31:0] $end
$var wire 32 U new_pc [31:0] $end
$var wire 1 V load_wait_intern $end
$var wire 1 W is_stall_t $end
$var wire 1 X is_load_store_t $end
$var wire 1 Y is_conditional_t $end
$var wire 1 Z is_branch_t $end
$var wire 32 [ imm_val_t [31:0] $end
$var wire 1 6 gnt_mem_prog_i $end
$var wire 1 > gnt_mem_data_i $end
$var wire 2 \ data_target_t [1:0] $end
$var wire 2 ] data_origin_t [1:0] $end
$var wire 32 ^ data_in_reg_file [31:0] $end
$var wire 32 _ csr_val_w [31:0] $end
$var wire 32 ` csr_val_r [31:0] $end
$var wire 3 a csr_op_t [2:0] $end
$var wire 12 b csr_addr_t [11:0] $end
$var wire 10 c addr_mem_prog_o [9:0] $end
$var wire 10 d addr_mem_data_o [9:0] $end
$var wire 3 e LIS_op_t [2:0] $end
$var wire 2 f BR_op_t [1:0] $end
$var wire 4 g ALU_op_t [3:0] $end
$var reg 1 h load_wait $end
$var reg 1 < req_mem_data_o $end
$var reg 1 4 req_mem_prog_o $end
$scope module controlUnit_inst $end
$var wire 1 h load_wait_i $end
$var wire 1 ; mem_rvalid_i $end
$var wire 1 > mem_gnt_i $end
$var wire 32 i instruction [31:0] $end
$var reg 4 j ALU_op [3:0] $end
$var reg 2 k BR_op_o [1:0] $end
$var reg 3 l LIS_op [2:0] $end
$var reg 12 m csr_addr_o [11:0] $end
$var reg 32 n csr_data_o [31:0] $end
$var reg 3 o csr_op_o [2:0] $end
$var reg 2 p data_acces [1:0] $end
$var reg 2 q data_origin_o [1:0] $end
$var reg 2 r data_target_o [1:0] $end
$var reg 3 s funct3 [2:0] $end
$var reg 7 t funct7 [6:0] $end
$var reg 12 u imm12 [11:0] $end
$var reg 12 v imm12b [11:0] $end
$var reg 12 w imm12s [11:0] $end
$var reg 20 x imm20 [19:0] $end
$var reg 20 y imm20j [19:0] $end
$var reg 32 z imm_val_o [31:0] $end
$var reg 1 Z is_branch_o $end
$var reg 1 Y is_conditional_o $end
$var reg 1 X is_load_store $end
$var reg 1 W is_stall_o $end
$var reg 1 V load_wait_o $end
$var reg 1 O mem_req_o $end
$var reg 1 9 mem_w $end
$var reg 7 { opcode [6:0] $end
$var reg 5 | r1_addr [4:0] $end
$var reg 5 } r2_addr [4:0] $end
$var reg 5 ~ rd [4:0] $end
$var reg 5 !" reg_addr [4:0] $end
$var reg 1 H reg_w $end
$var reg 5 "" rs1 [4:0] $end
$var reg 5 #" rs2 [4:0] $end
$var reg 4 $" write_transfer_o [3:0] $end
$upscope $end
$scope module crs_unit_inst $end
$var wire 1 ) clk $end
$var wire 12 %" csr_addr_i [11:0] $end
$var wire 3 &" csr_op_i [2:0] $end
$var wire 32 '" csr_val_i [31:0] $end
$var wire 1 + rst_n $end
$var wire 64 (" timer_val_i [63:0] $end
$var reg 32 )" csr_val_o [31:0] $end
$var reg 64 *" timer_val_o [63:0] $end
$var reg 1 +" timer_we_o $end
$scope module timer_inst $end
$var wire 1 ) clk $end
$var wire 1 + rst_n $end
$var wire 64 ," val_i [63:0] $end
$var wire 1 +" we_i $end
$var reg 64 -" val_o [63:0] $end
$upscope $end
$upscope $end
$scope module exec_unit_inst $end
$var wire 4 ." ALU_op [3:0] $end
$var wire 2 /" BR_op [1:0] $end
$var wire 3 0" LIS_op [2:0] $end
$var wire 3 1" csr_op_i [2:0] $end
$var wire 32 2" csr_val_i [31:0] $end
$var wire 2 3" data_origin_i [1:0] $end
$var wire 2 4" data_target_i [1:0] $end
$var wire 32 5" imm_val_i [31:0] $end
$var wire 1 Z is_branch_i $end
$var wire 1 Y is_conditional_i $end
$var wire 1 X is_loadstore $end
$var wire 1 6" zero_alu_result $end
$var wire 32 7" val_mem_data_write_o [31:0] $end
$var wire 32 8" val_mem_data_read_i [31:0] $end
$var wire 32 9" rs2_i [31:0] $end
$var wire 32 :" rs1_i [31:0] $end
$var wire 32 ;" reg_pc_i [31:0] $end
$var wire 32 <" pc_i [31:0] $end
$var wire 32 =" new_pc_offset_o [31:0] $end
$var wire 32 >" mem_o [31:0] $end
$var wire 32 ?" alu_o [31:0] $end
$var wire 10 @" addr_mem_data_o [9:0] $end
$var reg 32 A" d_o [31:0] $end
$var reg 32 B" s1_ALU [31:0] $end
$var reg 32 C" s2_ALU [31:0] $end
$scope module ALU $end
$var wire 4 D" ALU_op [3:0] $end
$var wire 32 E" s1 [31:0] $end
$var wire 32 F" s2 [31:0] $end
$var wire 1 6" zero_o $end
$var wire 5 G" shift [4:0] $end
$var reg 32 H" d [31:0] $end
$upscope $end
$scope module BR $end
$var wire 1 6" ALU_zero_i $end
$var wire 2 I" BR_op_i [1:0] $end
$var wire 32 J" alu_d [31:0] $end
$var wire 32 K" imm_i [31:0] $end
$var wire 1 Z is_branch_i $end
$var wire 1 Y is_conditional_i $end
$var wire 32 L" reg_pc_i [31:0] $end
$var wire 32 M" pc_i [31:0] $end
$var wire 32 N" new_pc_o [31:0] $end
$var reg 32 O" offset [31:0] $end
$upscope $end
$scope module LIS $end
$var wire 3 P" LIS_op [2:0] $end
$var wire 32 Q" addr_mem_i [31:0] $end
$var wire 32 R" val_mem_write_i [31:0] $end
$var wire 32 S" val_mem_read_i [31:0] $end
$var wire 10 T" addr_mem_o [9:0] $end
$var reg 32 U" val_mem_read_o [31:0] $end
$var reg 32 V" val_mem_write_o [31:0] $end
$upscope $end
$upscope $end
$scope module program_counter_inst $end
$var wire 1 ) clk $end
$var wire 1 W is_stall_i $end
$var wire 32 W" new_pc_i [31:0] $end
$var wire 1 + rst_n $end
$var wire 32 X" new_pc [31:0] $end
$var wire 1 6 gnt_mem_prog_i $end
$var reg 1 Y" exec $end
$var reg 32 Z" pc [31:0] $end
$var reg 32 [" reg_pc_o [31:0] $end
$var reg 1 N req_mem_prog_o $end
$upscope $end
$scope module reg_file_inst $end
$var wire 1 ) clk $end
$var wire 32 \" data_in [31:0] $end
$var wire 5 ]" r1_num_read [4:0] $end
$var wire 5 ^" r2_num_read [4:0] $end
$var wire 5 _" r_num_write [4:0] $end
$var wire 1 + rst_n $end
$var wire 1 H we $end
$var wire 32 `" rs2 [31:0] $end
$var wire 32 a" rs1 [31:0] $end
$scope begin REG $end
$var integer 32 b" j [31:0] $end
$upscope $end
$upscope $end
$upscope $end
$scope module data_ram_mux_i $end
$var wire 1 ) clk $end
$var wire 10 c" port0_addr_i [9:0] $end
$var wire 4 d" port0_be_i [3:0] $end
$var wire 1 < port0_req_i $end
$var wire 32 e" port0_wdata_i [31:0] $end
$var wire 1 9 port0_we_i $end
$var wire 10 f" port1_addr_i [9:0] $end
$var wire 4 g" port1_be_i [3:0] $end
$var wire 1 # port1_req_i $end
$var wire 32 h" port1_wdata_i [31:0] $end
$var wire 1 % port1_we_i $end
$var wire 1 0 ram_en_o $end
$var wire 1 + rst_n $end
$var wire 1 - ram_we_o $end
$var wire 32 i" ram_wdata_o [31:0] $end
$var wire 32 j" ram_rdata_i [31:0] $end
$var wire 4 k" ram_be_o [3:0] $end
$var wire 10 l" ram_addr_o [9:0] $end
$var wire 32 m" port1_rdata_o [31:0] $end
$var wire 4 n" port1_be [3:0] $end
$var wire 32 o" port0_rdata_o [31:0] $end
$var wire 4 p" port0_be [3:0] $end
$var reg 1 > port0_gnt_o $end
$var reg 1 ; port0_rvalid_o $end
$var reg 1 F port1_gnt_o $end
$var reg 1 D port1_rvalid_o $end
$scope begin genblk3 $end
$upscope $end
$scope begin genblk6 $end
$upscope $end
$upscope $end
$scope module mem_data_inst $end
$var wire 10 q" addr [9:0] $end
$var wire 1 ) clk $end
$var wire 32 r" data_in [31:0] $end
$var wire 1 + rst_n $end
$var wire 1 - we $end
$var wire 4 s" write_transfer_i [3:0] $end
$var wire 32 t" data_out [31:0] $end
$scope begin MEM_WRITE $end
$var integer 32 u" j [31:0] $end
$upscope $end
$upscope $end
$scope module mem_prog_inst $end
$var wire 1 ) clk $end
$var wire 32 v" data_out [31:0] $end
$var wire 1 + rst_n $end
$var wire 10 w" addr [9:0] $end
$scope begin MEM_READ $end
$var integer 32 x" j [31:0] $end
$upscope $end
$upscope $end
$scope module prog_ram_mux_i $end
$var wire 1 ) clk $end
$var wire 10 y" port0_addr_i [9:0] $end
$var wire 4 z" port0_be_i [3:0] $end
$var wire 1 4 port0_req_i $end
$var wire 32 {" port0_wdata_i [31:0] $end
$var wire 1 * port0_we_i $end
$var wire 10 |" port1_addr_i [9:0] $end
$var wire 4 }" port1_be_i [3:0] $end
$var wire 1 ' port1_req_i $end
$var wire 32 ~" port1_wdata_i [31:0] $end
$var wire 1 ( port1_we_i $end
$var wire 1 !# ram_en_o $end
$var wire 32 "# ram_rdata_i [31:0] $end
$var wire 1 + rst_n $end
$var wire 1 ## ram_we_o $end
$var wire 32 $# ram_wdata_o [31:0] $end
$var wire 4 %# ram_be_o [3:0] $end
$var wire 10 &# ram_addr_o [9:0] $end
$var wire 32 '# port1_rdata_o [31:0] $end
$var wire 4 (# port1_be [3:0] $end
$var wire 32 )# port0_rdata_o [31:0] $end
$var wire 4 *# port0_be [3:0] $end
$var reg 1 6 port0_gnt_o $end
$var reg 1 3 port0_rvalid_o $end
$var reg 1 C port1_gnt_o $end
$var reg 1 A port1_rvalid_o $end
$scope begin genblk3 $end
$upscope $end
$scope begin genblk6 $end
$upscope $end
$upscope $end
$upscope $end
$upscope $end
$upscope $end
$enddefinitions $end
#0
$dumpvars
b0z *#
b0 )#
b0z (#
b0 '#
b0 &#
b0z %#
b0z $#
z##
b0 "#
0!#
b0z ~"
b0z }"
b0 |"
b0z {"
b0z z"
b0 y"
b10000000000 x"
b0 w"
b0 v"
b100000000 u"
bx t"
bz s"
bz r"
bz q"
b0 p"
bx o"
bz n"
bx m"
bz l"
bz k"
bx j"
bz i"
bz h"
bz g"
bz f"
b0 e"
b0 d"
b0 c"
b100000 b"
b0 a"
b0 `"
b0 _"
b0 ^"
b0 ]"
b0 \"
b0 ["
b0 Z"
0Y"
b0 X"
b100 W"
b0 V"
bx U"
b0 T"
bx S"
b0 R"
b0 Q"
b0 P"
b0 O"
b100 N"
b0 M"
b0 L"
b0 K"
b0 J"
b0 I"
b0 H"
b0 G"
b0 F"
b0 E"
b0 D"
b0 C"
b0 B"
b0 A"
b0 @"
b0 ?"
bx >"
b100 ="
b0 <"
b0 ;"
b0 :"
b0 9"
bx 8"
b0 7"
16"
b0 5"
b0 4"
b0 3"
bx 2"
b0 1"
b0 0"
b0 /"
b0 ."
b0 -"
b0 ,"
0+"
b0 *"
bx )"
b0 ("
b0 '"
b0 &"
b0 %"
b0 $"
b0 #"
b0 ""
b0 !"
b0 ~
b0 }
b0 |
b0 {
b0 z
b0 y
b0 x
b0 w
b0 v
b0 u
b0 t
b0 s
b0 r
b0 q
b0 p
b0 o
b0 n
b0 m
b0 l
b0 k
b0 j
b0 i
0h
b0 g
b0 f
b0 e
b0 d
b0 c
b0 b
b0 a
bx `
b0 _
b0 ^
b0 ]
b0 \
b0 [
0Z
0Y
0X
0W
0V
b100 U
b0 T
b0 S
b0 R
b0 Q
b0 P
0O
0N
b0 M
b0 L
bx K
b0 J
b0 I
0H
b0 G
0F
bx E
0D
0C
b0 B
0A
b0 @
b0 ?
0>
bx =
0<
0;
b0 :
09
b0 8
b0 7
06
b0 5
04
03
bz 2
bz 1
00
bx /
bz .
z-
b0 ,
0+
z*
0)
z(
0'
b0 &
z%
bz $
0#
bz "
bz !
$end
#50000
0N
b100000000 u"
b10000000000 x"
b100000 b"
1)
#100000
06"
b100 @
b100 d
b100 @"
b100 T"
b100 c"
b100 ?"
b100 H"
b100 J"
b100 Q"
b100 G"
b0 O"
bx ^
bx A"
bx \"
b100 C"
b100 F"
b1 \
b1 r
b1 4"
b100 [
b100 z
b100 5"
b100 K"
b1 ]
b1 q
b1 3"
b11 Q
b11 !"
b11 _"
1H
1X
1W
1O
b100 #"
b11 w
b10000000001 v
b10 y
b11 ~
b100 u
b10000000000 x
b11 {
0)
1+
b10000000000000110000011 5
b10000000000000110000011 I
b10000000000000110000011 i
b10000000000000110000011 )#
b10000000000000110000011 B
b10000000000000110000011 '#
b10000000000000110000011 ,
b10000000000000110000011 v"
b10000000000000110000011 "#
#150000
b1111 >"
b1111 U"
b1111 ^
b1111 A"
b1111 \"
b100 C"
b100 F"
b11110000010010100001110000001111 E
b11110000010010100001110000001111 m"
b11110000010010100001110000001111 =
b11110000010010100001110000001111 K
b11110000010010100001110000001111 8"
b11110000010010100001110000001111 S"
b11110000010010100001110000001111 o"
b11110000010010100001110000001111 /
b11110000010010100001110000001111 j"
b11110000010010100001110000001111 t"
1V
1O
1W
b11 Q
b11 !"
b11 _"
b100 [
b100 z
b100 5"
b100 K"
b1 \
b1 r
b1 4"
b1 ]
b1 q
b1 3"
1H
1X
10
1>
b100 2
b100 l"
b100 q"
b0 .
b0 i"
b0 r"
0-
b0 1
b0 k"
b0 s"
1N
b1 ("
b1 -"
1<
1)
#200000
0)
#250000
b100 X"
b1111 ^
b1111 A"
b1111 \"
b100 C"
b100 F"
0V
0O
0W
b11 Q
b11 !"
b11 _"
b100 [
b100 z
b100 5"
b100 K"
b1 \
b1 r
b1 4"
b1 ]
b1 q
b1 3"
1H
1X
1!#
16
1>
1;
1h
14
1<
b10 ("
b10 -"
1)
#300000
0)
#350000
b1 e
b1 l
b1 0"
b1 P"
b100 w
b10 v
b100000000010 y
b100 ~
b10000000001 x
b1 s
bx >"
bx U"
b10000000001001000000011 5
b10000000001001000000011 I
b10000000001001000000011 i
b10000000001001000000011 )#
b10000000001001000000011 B
b10000000001001000000011 '#
b10000000001001000000011 ,
b10000000001001000000011 v"
b10000000001001000000011 "#
bx E
bx m"
bx =
bx K
bx 8"
bx S"
bx o"
bx /
bx j"
bx t"
b100 8
b100 w"
b100 &#
b1000 U
b1000 ="
b1000 N"
b1000 W"
bx ^
bx A"
bx \"
b100 C"
b100 F"
b100 7
b100 c
b100 y"
1W
1O
b100 Q
b100 !"
b100 _"
b100 [
b100 z
b100 5"
b100 K"
b1 \
b1 r
b1 4"
b1 ]
b1 q
b1 3"
1H
1X
16
00
0>
bz 2
bz l"
bz q"
bz .
bz i"
bz r"
z-
bz 1
bz k"
bz s"
b100 T
b100 <"
b100 M"
b100 Z"
b11 ("
b11 -"
0h
14
0<
13
1)
#400000
0)
#450000
b11110000010010100001110000001111 E
b11110000010010100001110000001111 m"
b11110000010010100001110000001111 =
b11110000010010100001110000001111 K
b11110000010010100001110000001111 8"
b11110000010010100001110000001111 S"
b11110000010010100001110000001111 o"
b11110000010010100001110000001111 /
b11110000010010100001110000001111 j"
b11110000010010100001110000001111 t"
b1110000001111 >"
b1110000001111 U"
1V
1O
1W
b100 Q
b100 !"
b100 _"
b100 [
b100 z
b100 5"
b100 K"
b1 e
b1 l
b1 0"
b1 P"
b1 \
b1 r
b1 4"
b1 ]
b1 q
b1 3"
1H
1X
10
1>
b100 2
b100 l"
b100 q"
b0 .
b0 i"
b0 r"
0-
b0 1
b0 k"
b0 s"
16
b1110000001111 ^
b1110000001111 A"
b1110000001111 \"
b100 C"
b100 F"
0;
1<
14
b100 ("
b100 -"
b100 P
b100 ;"
b100 L"
b100 ["
1)
#500000
0)
#550000
b1000 X"
b1110000001111 >"
b1110000001111 U"
b1110000001111 ^
b1110000001111 A"
b1110000001111 \"
b100 C"
b100 F"
16
1>
0V
0O
0W
b100 Q
b100 !"
b100 _"
b100 [
b100 z
b100 5"
b100 K"
b1 e
b1 l
b1 0"
b1 P"
b1 \
b1 r
b1 4"
b1 ]
b1 q
b1 3"
1H
1X
b101 ("
b101 -"
1h
14
1<
1;
1)
#600000
0)
#650000
b101 w
b10000000010 v
b1000000000010 y
b101 ~
b10000000010 x
b10 s
bx E
bx m"
bx =
bx K
bx 8"
bx S"
bx o"
bx /
bx j"
bx t"
bx >"
bx U"
b10000000010001010000011 5
b10000000010001010000011 I
b10000000010001010000011 i
b10000000010001010000011 )#
b10000000010001010000011 B
b10000000010001010000011 '#
b10000000010001010000011 ,
b10000000010001010000011 v"
b10000000010001010000011 "#
b1000 X"
1W
1O
b101 Q
b101 !"
b101 _"
b100 [
b100 z
b100 5"
b100 K"
b10 e
b10 l
b10 0"
b10 P"
b1 \
b1 r
b1 4"
b1 ]
b1 q
b1 3"
1H
1X
16
b1000 8
b1000 w"
b1000 &#
00
0>
bz 2
bz l"
bz q"
bz .
bz i"
bz r"
z-
bz 1
bz k"
bz s"
b1100 U
b1100 ="
b1100 N"
b1100 W"
bx ^
bx A"
bx \"
b100 C"
b100 F"
b1000 7
b1000 c
b1000 y"
0h
14
0<
b110 ("
b110 -"
b1000 T
b1000 <"
b1000 M"
b1000 Z"
1)
#700000
0)
#750000
b11110000010010100001110000001111 E
b11110000010010100001110000001111 m"
b11110000010010100001110000001111 =
b11110000010010100001110000001111 K
b11110000010010100001110000001111 8"
b11110000010010100001110000001111 S"
b11110000010010100001110000001111 o"
b11110000010010100001110000001111 /
b11110000010010100001110000001111 j"
b11110000010010100001110000001111 t"
1V
b11110000010010100001110000001111 >"
b11110000010010100001110000001111 U"
b11110000010010100001110000001111 ^
b11110000010010100001110000001111 A"
b11110000010010100001110000001111 \"
b100 C"
b100 F"
10
1>
b100 2
b100 l"
b100 q"
b0 .
b0 i"
b0 r"
0-
b0 1
b0 k"
b0 s"
16
1O
1W
b101 Q
b101 !"
b101 _"
b100 [
b100 z
b100 5"
b100 K"
b10 e
b10 l
b10 0"
b10 P"
b1 \
b1 r
b1 4"
b1 ]
b1 q
b1 3"
1H
1X
b1000 P
b1000 ;"
b1000 L"
b1000 ["
b111 ("
b111 -"
1<
14
0;
1)
#800000
0)
#850000
b1100 X"
b11110000010010100001110000001111 >"
b11110000010010100001110000001111 U"
b11110000010010100001110000001111 ^
b11110000010010100001110000001111 A"
b11110000010010100001110000001111 \"
b100 C"
b100 F"
0V
0O
0W
b101 Q
b101 !"
b101 _"
b100 [
b100 z
b100 5"
b100 K"
b10 e
b10 l
b10 0"
b10 P"
b1 \
b1 r
b1 4"
b1 ]
b1 q
b1 3"
1H
1X
16
1>
1;
1h
14
1<
b1000 ("
b1000 -"
1)
#900000
0)
#950000
b110 w
b11 v
b10100000000010 y
b110 ~
b10000000101 x
b101 s
b10000000101001100000011 5
b10000000101001100000011 I
b10000000101001100000011 i
b10000000101001100000011 )#
b10000000101001100000011 B
b10000000101001100000011 '#
b10000000101001100000011 ,
b10000000101001100000011 v"
b10000000101001100000011 "#
bx E
bx m"
bx =
bx K
bx 8"
bx S"
bx o"
bx /
bx j"
bx t"
b1100 8
b1100 w"
b1100 &#
b0xxxxxxxxxxxxxxxx >"
b0xxxxxxxxxxxxxxxx U"
b10000 U
b10000 ="
b10000 N"
b10000 W"
b0xxxxxxxxxxxxxxxx ^
b0xxxxxxxxxxxxxxxx A"
b0xxxxxxxxxxxxxxxx \"
b100 C"
b100 F"
b1100 7
b1100 c
b1100 y"
1W
1O
b110 Q
b110 !"
b110 _"
b100 [
b100 z
b100 5"
b100 K"
b100 e
b100 l
b100 0"
b100 P"
b1 \
b1 r
b1 4"
b1 ]
b1 q
b1 3"
1H
1X
16
00
0>
bz 2
bz l"
bz q"
bz .
bz i"
bz r"
z-
bz 1
bz k"
bz s"
b1100 T
b1100 <"
b1100 M"
b1100 Z"
b1001 ("
b1001 -"
0h
14
0<
1)
#1000000
0)
#1050000
b11110000010010100001110000001111 E
b11110000010010100001110000001111 m"
b11110000010010100001110000001111 =
b11110000010010100001110000001111 K
b11110000010010100001110000001111 8"
b11110000010010100001110000001111 S"
b11110000010010100001110000001111 o"
b11110000010010100001110000001111 /
b11110000010010100001110000001111 j"
b11110000010010100001110000001111 t"
b1110000001111 >"
b1110000001111 U"
1V
1O
1W
b110 Q
b110 !"
b110 _"
b100 [
b100 z
b100 5"
b100 K"
b100 e
b100 l
b100 0"
b100 P"
b1 \
b1 r
b1 4"
b1 ]
b1 q
b1 3"
1H
1X
10
1>
b100 2
b100 l"
b100 q"
b0 .
b0 i"
b0 r"
0-
b0 1
b0 k"
b0 s"
16
b1110000001111 ^
b1110000001111 A"
b1110000001111 \"
b100 C"
b100 F"
0;
1<
14
b1010 ("
b1010 -"
b1100 P
b1100 ;"
b1100 L"
b1100 ["
1)
#1100000
16"
b0 @
b0 d
b0 @"
b0 T"
b0 c"
b0 ?"
b0 H"
b0 J"
b0 Q"
b0 G"
bx >"
bx U"
bx E
bx m"
bx =
bx K
bx 8"
bx S"
bx o"
bx /
bx j"
bx t"
b0 #"
b0 w
b0 v
b0 y
b0 ~
b0 u
b0 x
b0 s
b0 {
0V
0O
0W
b0 Q
b0 !"
b0 _"
b0 [
b0 z
b0 5"
b0 K"
b0 e
b0 l
b0 0"
b0 P"
b0 \
b0 r
b0 4"
b0 ]
b0 q
b0 3"
0H
0X
b0 X"
b100 U
b100 ="
b100 N"
b100 W"
b0 ^
b0 A"
b0 \"
b0 C"
b0 F"
b0 7
b0 c
b0 y"
0!#
06
b0 8
b0 w"
b0 &#
00
0>
bz 2
bz l"
bz q"
bz .
bz i"
bz r"
z-
bz 1
bz k"
bz s"
b0 5
b0 I
b0 i
b0 )#
b0 B
b0 '#
b0 ,
b0 v"
b0 "#
0N
b0 P
b0 ;"
b0 L"
b0 ["
b0 T
b0 <"
b0 M"
b0 Z"
b0 ("
b0 -"
04
0<
03
b100000000 u"
b10000000000 x"
b100000 b"
0)
0+
#1150000
0N
b100000000 u"
b10000000000 x"
b100000 b"
1)
#1200000
bx >"
bx U"
bx ^
bx A"
bx \"
b1 \
b1 r
b1 4"
b10 e
b10 l
b10 0"
b10 P"
b1 ]
b1 q
b1 3"
b1 Q
b1 !"
b1 _"
1H
1X
1W
1O
b1 w
b10000000000 v
b1000000000000 y
b1 ~
b10 x
b10 s
b11 {
0)
1+
b10000010000011 5
b10000010000011 I
b10000010000011 i
b10000010000011 )#
b10000010000011 B
b10000010000011 '#
b10000010000011 ,
b10000010000011 v"
b10000010000011 "#
#1250000
b10000000100000001000000010000 >"
b10000000100000001000000010000 U"
b10000000100000001000000010000 ^
b10000000100000001000000010000 A"
b10000000100000001000000010000 \"
b10000000100000001000000010000 E
b10000000100000001000000010000 m"
b10000000100000001000000010000 =
b10000000100000001000000010000 K
b10000000100000001000000010000 8"
b10000000100000001000000010000 S"
b10000000100000001000000010000 o"
b10000000100000001000000010000 /
b10000000100000001000000010000 j"
b10000000100000001000000010000 t"
1V
1O
1W
b1 Q
b1 !"
b1 _"
b10 e
b10 l
b10 0"
b10 P"
b1 \
b1 r
b1 4"
b1 ]
b1 q
b1 3"
1H
1X
10
1>
b0 2
b0 l"
b0 q"
b0 .
b0 i"
b0 r"
0-
b0 1
b0 k"
b0 s"
1N
b1 ("
b1 -"
1<
1)
#1300000
0)
#1350000
b100 X"
b10000000100000001000000010000 >"
b10000000100000001000000010000 U"
b10000000100000001000000010000 ^
b10000000100000001000000010000 A"
b10000000100000001000000010000 \"
0V
0O
0W
b1 Q
b1 !"
b1 _"
b10 e
b10 l
b10 0"
b10 P"
b1 \
b1 r
b1 4"
b1 ]
b1 q
b1 3"
1H
1X
1!#
16
1>
1;
1h
14
1<
b10 ("
b10 -"
1)
#1400000
0)
#1450000
06"
b100 @
b100 d
b100 @"
b100 T"
b100 c"
b100 ?"
b100 H"
b100 J"
b100 Q"
b100 G"
b0 O"
b100 C"
b100 F"
b100 [
b100 z
b100 5"
b100 K"
b100 #"
b10 w
b1 v
b1000000000010 y
b10 ~
b100 u
b10000000010 x
b10000000010000100000011 5
b10000000010000100000011 I
b10000000010000100000011 i
b10000000010000100000011 )#
b10000000010000100000011 B
b10000000010000100000011 '#
b10000000010000100000011 ,
b10000000010000100000011 v"
b10000000010000100000011 "#
bx E
bx m"
bx =
bx K
bx 8"
bx S"
bx o"
bx /
bx j"
bx t"
b100 8
b100 w"
b100 &#
bx >"
bx U"
b1000 U
b1000 ="
b1000 N"
b1000 W"
bx ^
bx A"
bx \"
b100 7
b100 c
b100 y"
1W
1O
b10 Q
b10 !"
b10 _"
b10 e
b10 l
b10 0"
b10 P"
b1 \
b1 r
b1 4"
b1 ]
b1 q
b1 3"
1H
1X
16
00
0>
bz 2
bz l"
bz q"
bz .
bz i"
bz r"
z-
bz 1
bz k"
bz s"
b100 T
b100 <"
b100 M"
b100 Z"
b11 ("
b11 -"
0h
14
0<
13
1)
#1500000
0)
#1550000
b11110000010010100001110000001111 E
b11110000010010100001110000001111 m"
b11110000010010100001110000001111 =
b11110000010010100001110000001111 K
b11110000010010100001110000001111 8"
b11110000010010100001110000001111 S"
b11110000010010100001110000001111 o"
b11110000010010100001110000001111 /
b11110000010010100001110000001111 j"
b11110000010010100001110000001111 t"
b11110000010010100001110000001111 >"
b11110000010010100001110000001111 U"
1V
1O
1W
b10 Q
b10 !"
b10 _"
b100 [
b100 z
b100 5"
b100 K"
b10 e
b10 l
b10 0"
b10 P"
b1 \
b1 r
b1 4"
b1 ]
b1 q
b1 3"
1H
1X
10
1>
b100 2
b100 l"
b100 q"
b0 .
b0 i"
b0 r"
0-
b0 1
b0 k"
b0 s"
16
b11110000010010100001110000001111 ^
b11110000010010100001110000001111 A"
b11110000010010100001110000001111 \"
b100 C"
b100 F"
0;
1<
14
b100 ("
b100 -"
b100 P
b100 ;"
b100 L"
b100 ["
1)
#1600000
0)
#1650000
b1000 X"
b11110000010010100001110000001111 >"
b11110000010010100001110000001111 U"
b11110000010010100001110000001111 ^
b11110000010010100001110000001111 A"
b11110000010010100001110000001111 \"
b100 C"
b100 F"
16
1>
0V
0O
0W
b10 Q
b10 !"
b10 _"
b100 [
b100 z
b100 5"
b100 K"
b10 e
b10 l
b10 0"
b10 P"
b1 \
b1 r
b1 4"
b1 ]
b1 q
b1 3"
1H
1X
b101 ("
b101 -"
1h
14
1<
1;
1)
#1700000
0)
#1750000
b1000 @
b1000 d
b1000 @"
b1000 T"
b1000 c"
b1000 ?"
b1000 H"
b1000 J"
b1000 Q"
b1000 G"
b1000 #"
b11 w
b10000000001 v
b1000000000100 y
b11 ~
b1000 u
b100000000010 x
bx E
bx m"
bx =
bx K
bx 8"
bx S"
bx o"
bx /
bx j"
bx t"
bx >"
bx U"
b100000000010000110000011 5
b100000000010000110000011 I
b100000000010000110000011 i
b100000000010000110000011 )#
b100000000010000110000011 B
b100000000010000110000011 '#
b100000000010000110000011 ,
b100000000010000110000011 v"
b100000000010000110000011 "#
b1000 X"
1W
1O
b11 Q
b11 !"
b11 _"
b1000 [
b1000 z
b1000 5"
b1000 K"
b10 e
b10 l
b10 0"
b10 P"
b1 \
b1 r
b1 4"
b1 ]
b1 q
b1 3"
1H
1X
16
b1000 8
b1000 w"
b1000 &#
00
0>
bz 2
bz l"
bz q"
bz .
bz i"
bz r"
z-
bz 1
bz k"
bz s"
b1100 U
b1100 ="
b1100 N"
b1100 W"
bx ^
bx A"
bx \"
b1000 C"
b1000 F"
b1000 7
b1000 c
b1000 y"
0h
14
0<
b110 ("
b110 -"
b1000 T
b1000 <"
b1000 M"
b1000 Z"
1)
#1800000
0)
