vcd/riscV.vcd
$date
	Tue Sep 24 08:19:44 2019
$end
$version
	Icarus Verilog
$end
$timescale
	1ps
$end
$scope module tb $end
$scope module package_inst $end
$var wire 1 ! clk $end
$var wire 1 " rst_n $end
$var wire 1 # we_mem_data $end
$var wire 32 $ val_mem_prog [31:0] $end
$var wire 32 % val_mem_data_write [31:0] $end
$var wire 32 & val_mem_data_read [31:0] $end
$var wire 10 ' addr_mem_prog [9:0] $end
$var wire 10 ( addr_mem_data [9:0] $end
$scope module core_inst $end
$var wire 1 ! clk $end
$var wire 1 " rst_n $end
$var wire 1 ) we_reg_file $end
$var wire 1 # we_mem_data_o $end
$var wire 32 * val_mem_prog_i [31:0] $end
$var wire 32 + val_mem_data_write_o [31:0] $end
$var wire 32 , val_mem_data_read_i [31:0] $end
$var wire 32 - rs2_reg_file [31:0] $end
$var wire 32 . rs2_exec_unit_t [31:0] $end
$var wire 32 / rs1_reg_file [31:0] $end
$var wire 32 0 rs1_exec_unit_t [31:0] $end
$var wire 5 1 r_num_write_reg_file [4:0] $end
$var wire 5 2 r2_num_read_reg_file [4:0] $end
$var wire 5 3 r1_num_read_reg_file [4:0] $end
$var wire 32 4 new_pc [31:0] $end
$var wire 1 5 mem_to_reg_t $end
$var wire 1 6 is_load_store_t $end
$var wire 1 7 is_imm_rs2 $end
$var wire 1 8 is_imm_rs1 $end
$var wire 1 9 is_conditional_t $end
$var wire 1 : is_branch_t $end
$var wire 1 ; is_absolute_t $end
$var wire 32 < imm_val_rs2 [31:0] $end
$var wire 32 = imm_val_rs1 [31:0] $end
$var wire 32 > data_in_reg_file [31:0] $end
$var wire 10 ? addr_mem_prog_o [9:0] $end
$var wire 10 @ addr_mem_data_o [9:0] $end
$var wire 3 A LIS_op_t [2:0] $end
$var wire 2 B BR_op_t [1:0] $end
$var wire 4 C ALU_op_t [3:0] $end
$scope module controlUnit_inst $end
$var wire 10 D pc_i [9:0] $end
$var wire 32 E instruction [31:0] $end
$var reg 4 F ALU_op [3:0] $end
$var reg 2 G BR_op_o [1:0] $end
$var reg 3 H LIS_op [2:0] $end
$var reg 3 I funct3 [2:0] $end
$var reg 7 J funct7 [6:0] $end
$var reg 12 K imm12 [11:0] $end
$var reg 12 L imm12b [11:0] $end
$var reg 12 M imm12s [11:0] $end
$var reg 20 N imm20 [19:0] $end
$var reg 20 O imm20j [19:0] $end
$var reg 32 P imm_val_rs1_o [31:0] $end
$var reg 32 Q imm_val_rs2_o [31:0] $end
$var reg 1 ; is_absolute_o $end
$var reg 1 : is_branch_o $end
$var reg 1 9 is_conditional_o $end
$var reg 1 8 is_imm_rs1_o $end
$var reg 1 7 is_imm_rs2_o $end
$var reg 1 6 is_load_store $end
$var reg 1 5 mem_to_reg $end
$var reg 1 # mem_w $end
$var reg 7 R opcode [6:0] $end
$var reg 5 S r1_addr [4:0] $end
$var reg 5 T r2_addr [4:0] $end
$var reg 5 U rd [4:0] $end
$var reg 5 V reg_addr [4:0] $end
$var reg 1 ) reg_r $end
$var reg 5 W rs1 [4:0] $end
$var reg 5 X rs2 [4:0] $end
$upscope $end
$scope module exec_unit_inst $end
$var wire 4 Y ALU_op [3:0] $end
$var wire 2 Z BR_op [1:0] $end
$var wire 3 [ LIS_op [2:0] $end
$var wire 1 : is_branch_i $end
$var wire 1 9 is_conditional_i $end
$var wire 1 6 is_loadstore $end
$var wire 1 \ zero_alu_result $end
$var wire 32 ] val_mem_data_write_o [31:0] $end
$var wire 32 ^ val_mem_data_read_i [31:0] $end
$var wire 32 _ s2_ALU [31:0] $end
$var wire 32 ` s2 [31:0] $end
$var wire 32 a s1 [31:0] $end
$var wire 32 b rs2 [31:0] $end
$var wire 10 c old_pc_i [9:0] $end
$var wire 32 d new_pc_offset_o [31:0] $end
$var wire 32 e mem_o [31:0] $end
$var wire 32 f alu_o [31:0] $end
$var wire 10 g addr_mem_data_o [9:0] $end
$var reg 32 h d [31:0] $end
$scope module ALU $end
$var wire 4 i ALU_op [3:0] $end
$var wire 32 j s2 [31:0] $end
$var wire 1 \ zero_o $end
$var wire 5 k shift [4:0] $end
$var wire 32 l s1 [31:0] $end
$var reg 32 m d [31:0] $end
$upscope $end
$scope module BR $end
$var wire 1 \ ALU_zero_i $end
$var wire 2 n BR_op_i [1:0] $end
$var wire 32 o alu_d [31:0] $end
$var wire 1 9 is_conditional_i $end
$var wire 32 p old_pc_i [31:0] $end
$var wire 32 q new_pc_o [31:0] $end
$var wire 32 r new_pc_i [31:0] $end
$var reg 32 s offset [31:0] $end
$upscope $end
$scope module LIS $end
$var wire 3 t LIS_op [2:0] $end
$var wire 32 u addr_mem_i [31:0] $end
$var wire 32 v val_mem_write_i [31:0] $end
$var wire 32 w val_mem_read_i [31:0] $end
$var wire 10 x addr_mem_o [9:0] $end
$var reg 32 y val_mem_read_o [31:0] $end
$var reg 32 z val_mem_write_o [31:0] $end
$upscope $end
$upscope $end
$scope module mux_rs1_exec_inst $end
$var wire 32 { b [31:0] $end
$var wire 1 8 select $end
$var wire 32 | out [31:0] $end
$var wire 32 } a [31:0] $end
$upscope $end
$scope module mux_rs2_exec_inst $end
$var wire 32 ~ b [31:0] $end
$var wire 1 7 select $end
$var wire 32 !" out [31:0] $end
$var wire 32 "" a [31:0] $end
$upscope $end
$scope module program_counter_inst $end
$var wire 1 ! clk $end
$var wire 1 ; is_absolute_i $end
$var wire 1 : is_branch_i $end
$var wire 10 #" offset_i [9:0] $end
$var wire 1 " rst_n $end
$var wire 10 $" offset [9:0] $end
$var reg 10 %" addr [9:0] $end
$upscope $end
$scope module reg_file_inst $end
$var wire 1 ! clk $end
$var wire 32 &" data_in [31:0] $end
$var wire 5 '" r1_num_read [4:0] $end
$var wire 5 (" r2_num_read [4:0] $end
$var wire 5 )" r_num_write [4:0] $end
$var wire 1 " rst_n $end
$var wire 1 ) we $end
$var wire 32 *" rs2 [31:0] $end
$var wire 32 +" rs1 [31:0] $end
$scope begin REG $end
$var integer 32 ," j [31:0] $end
$upscope $end
$upscope $end
$upscope $end
$scope module mem_data_inst $end
$var wire 10 -" addr [9:0] $end
$var wire 1 ! clk $end
$var wire 32 ." data_in [31:0] $end
$var wire 1 " rst_n $end
$var wire 1 # we $end
$var wire 32 /" data_out [31:0] $end
$scope begin MEM_WRITE $end
$var integer 32 0" j [31:0] $end
$upscope $end
$upscope $end
$scope module mem_prog_inst $end
$var wire 10 1" addr [9:0] $end
$var wire 1 ! clk $end
$var wire 1 " rst_n $end
$var reg 32 2" data_out [31:0] $end
$scope begin MEM_READ $end
$var integer 32 3" j [31:0] $end
$upscope $end
$upscope $end
$upscope $end
$upscope $end
$enddefinitions $end
#0
$dumpvars
b10000000000 3"
bx 2"
b0 1"
b10000000000 0"
bx /"
bx ."
bx -"
b100000 ,"
bx +"
bx *"
bx )"
bx ("
bx '"
bx &"
b0 %"
b100 $"
bx #"
bx ""
bx !"
bx ~
bx }
bx |
bx {
bx z
bx y
bx x
bx w
bx v
bx u
bx t
bx s
bx r
bx q
b0 p
bx o
bx n
bx m
bx l
bx k
bx j
bx i
bx h
bx g
bx f
bx e
bx d
b0 c
bx b
bx a
bx `
bx _
bx ^
bx ]
x\
bx [
bx Z
bx Y
bx X
bx W
bx V
bx U
bx T
bx S
bx R
bx Q
bx P
bx O
bx N
bx M
bx L
bx K
bx J
bx I
bx H
bx G
bx F
bx E
b0 D
bx C
bx B
bx A
bx @
b0 ?
bx >
bx =
bx <
0;
0:
09
08
07
06
05
bx 4
bx 3
bx 2
bx 1
bx 0
bx /
bx .
bx -
bx ,
bx +
bx *
0)
bx (
b0 '
bx &
bx %
bx $
0#
0"
0!
$end
#50000
b10000000000 3"
b10000000000 0"
b100000 ,"
1!
#100000
0!
1"
#150000
b100 p
b100 '
b100 ?
b100 D
b100 c
b100 %"
b100 1"
0\
b1111111111 #"
b11111111111111111111111111111111 4
b11111111111111111111111111111111 d
b11111111111111111111111111111111 q
b1111111111 (
b1111111111 @
b1111111111 g
b1111111111 x
b1111111111 -"
b11111111111111111111111111111111 >
b11111111111111111111111111111111 h
b11111111111111111111111111111111 &"
b11111 k
b11111111111111111111111111111111 f
b11111111111111111111111111111111 m
b11111111111111111111111111111111 o
b11111111111111111111111111111111 u
b11111111111111111111111111111111 _
b11111111111111111111111111111111 j
b0 0
b0 a
b0 l
b0 |
b11111111111111111111111111111111 .
b11111111111111111111111111111111 `
b11111111111111111111111111111111 r
b11111111111111111111111111111111 !"
b0 /
b0 }
b0 +"
b0 C
b0 F
b0 Y
b0 i
b11 1
b11 V
b11 )"
b0 3
b0 S
b0 '"
1)
b11111111111111111111111111111111 <
b11111111111111111111111111111111 Q
b11111111111111111111111111111111 ~
17
b11111 X
b0 W
b111111100011 M
b111111110001 L
b10000000011111111111 O
b11 U
b111111111111 K
b11111111111100000000 N
b0 I
b1111111 J
b10011 R
b11111111111100000000000110010011 $
b11111111111100000000000110010011 *
b11111111111100000000000110010011 E
b11111111111100000000000110010011 2"
1!
#200000
0!
#250000
b1000 p
b1000 '
b1000 ?
b1000 D
b1000 c
b1000 %"
b1000 1"
b100 1
b100 V
b100 )"
b111111100100 M
b101111110010 L
b100 U
1)
17
b11111111111100000000001000010011 $
b11111111111100000000001000010011 *
b11111111111100000000001000010011 E
b11111111111100000000001000010011 2"
1!
#300000
0!
#350000
1\
b1100 p
b1100 '
b1100 ?
b1100 D
b1100 c
b1100 %"
b1100 1"
b10000000100000001000000010000 &
b10000000100000001000000010000 ,
b10000000100000001000000010000 ^
b10000000100000001000000010000 w
b10000000100000001000000010000 /"
b11111 k
b11110000 #"
b0 (
b0 @
b0 g
b0 x
b0 -"
b11111111111111111111111111111111 0
b11111111111111111111111111111111 a
b11111111111111111111111111111111 l
b11111111111111111111111111111111 |
b11111111111111111111111111111111 _
b11111111111111111111111111111111 j
b11110000 4
b11110000 d
b11110000 q
b11110000 $"
b11110000 s
b0 f
b0 m
b0 o
b0 u
b11111111111111111111111111111111 -
b11111111111111111111111111111111 b
b11111111111111111111111111111111 v
b11111111111111111111111111111111 ""
b11111111111111111111111111111111 *"
b11111111111111111111111111111111 /
b11111111111111111111111111111111 }
b11111111111111111111111111111111 +"
b11110000 .
b11110000 `
b11110000 r
b11110000 !"
b1100 >
b1100 h
b1100 &"
b0 B
b0 G
b0 Z
b0 n
b1 C
b1 F
b1 Y
b1 i
b100 2
b100 T
b100 ("
b11 3
b11 S
b11 '"
b11110000 <
b11110000 Q
b11110000 ~
19
1:
b100 X
b11 W
b11110000 M
b1111000 L
b1100000001110010 O
b10000 U
b11100100 K
b1110010000011000 N
b111 J
b1100011 R
0)
17
b1110010000011000100001100011 $
b1110010000011000100001100011 *
b1110010000011000100001100011 E
b1110010000011000100001100011 2"
1!
#400000
0!
#450000
b11111100 p
b11111100 '
b11111100 ?
b11111100 D
b11111100 c
b11111100 %"
b11111100 1"
b0 #"
b11111111111111111111111111111111 s
b0 4
b0 d
b0 q
b100 $"
b11111111111111111111111111111111 .
b11111111111111111111111111111111 `
b11111111111111111111111111111111 r
b11111111111111111111111111111111 !"
b0 >
b0 h
b0 &"
b0 X
b0 W
b0 M
b0 L
b0 O
b0 U
b0 K
b0 N
b0 J
b0 R
09
0:
07
b0 $
b0 *
b0 E
b0 2"
1!
#500000
0!
#550000
b100000000 p
b100000000 '
b100000000 ?
b100000000 D
b100000000 c
b100000000 %"
b100000000 1"
1!
#600000
0!
#650000
b100000100 p
b100000100 '
b100000100 ?
b100000100 D
b100000100 c
b100000100 %"
b100000100 1"
1!
#700000
0!
#750000
b100001000 p
b100001000 '
b100001000 ?
b100001000 D
b100001000 c
b100001000 %"
b100001000 1"
1!
#800000
0!
#850000
b100001100 p
b100001100 '
b100001100 ?
b100001100 D
b100001100 c
b100001100 %"
b100001100 1"
1!
#900000
0!
#950000
b100010000 p
b100010000 '
b100010000 ?
b100010000 D
b100010000 c
b100010000 %"
b100010000 1"
1!
#1000000
0!
#1050000
b100010100 p
b100010100 '
b100010100 ?
b100010100 D
b100010100 c
b100010100 %"
b100010100 1"
1!
#1100000
0!
#1150000
b100011000 p
b100011000 '
b100011000 ?
b100011000 D
b100011000 c
b100011000 %"
b100011000 1"
1!
