vcd/riscV.vcd
$date
	Wed Sep 25 17:52:39 2019
$end
$version
	Icarus Verilog
$end
$timescale
	1ps
$end
$scope module arithmeticologic_test $end
$scope module TB $end
$scope module package_inst $end
$var wire 1 ! clk $end
$var wire 1 " rst_n $end
$var wire 1 # we_mem_data $end
$var wire 32 $ val_mem_prog [31:0] $end
$var wire 32 % val_mem_data_write [31:0] $end
$var wire 32 & val_mem_data_read [31:0] $end
$var wire 10 ' addr_mem_prog [9:0] $end
$var wire 10 ( addr_mem_data [9:0] $end
$scope module core_inst $end
$var wire 1 ! clk $end
$var wire 1 " rst_n $end
$var wire 1 ) we_reg_file $end
$var wire 1 # we_mem_data_o $end
$var wire 32 * val_mem_prog_i [31:0] $end
$var wire 32 + val_mem_data_write_o [31:0] $end
$var wire 32 , val_mem_data_read_i [31:0] $end
$var wire 32 - rs2_reg_file [31:0] $end
$var wire 32 . rs2_exec_unit_t [31:0] $end
$var wire 32 / rs1_reg_file [31:0] $end
$var wire 32 0 rs1_exec_unit_t [31:0] $end
$var wire 5 1 r_num_write_reg_file [4:0] $end
$var wire 5 2 r2_num_read_reg_file [4:0] $end
$var wire 5 3 r1_num_read_reg_file [4:0] $end
$var wire 32 4 new_pc [31:0] $end
$var wire 1 5 mem_to_reg_t $end
$var wire 1 6 is_load_store_t $end
$var wire 1 7 is_imm_rs2 $end
$var wire 1 8 is_imm_rs1 $end
$var wire 1 9 is_conditional_t $end
$var wire 1 : is_branch_t $end
$var wire 1 ; is_absolute_t $end
$var wire 32 < imm_val_rs2 [31:0] $end
$var wire 32 = imm_val_rs1 [31:0] $end
$var wire 32 > data_in_reg_file [31:0] $end
$var wire 10 ? addr_mem_prog_o [9:0] $end
$var wire 10 @ addr_mem_data_o [9:0] $end
$var wire 3 A LIS_op_t [2:0] $end
$var wire 2 B BR_op_t [1:0] $end
$var wire 4 C ALU_op_t [3:0] $end
$scope module controlUnit_inst $end
$var wire 10 D pc_i [9:0] $end
$var wire 32 E instruction [31:0] $end
$var reg 4 F ALU_op [3:0] $end
$var reg 2 G BR_op_o [1:0] $end
$var reg 3 H LIS_op [2:0] $end
$var reg 3 I funct3 [2:0] $end
$var reg 7 J funct7 [6:0] $end
$var reg 12 K imm12 [11:0] $end
$var reg 12 L imm12b [11:0] $end
$var reg 12 M imm12s [11:0] $end
$var reg 20 N imm20 [19:0] $end
$var reg 20 O imm20j [19:0] $end
$var reg 32 P imm_val_rs1_o [31:0] $end
$var reg 32 Q imm_val_rs2_o [31:0] $end
$var reg 1 ; is_absolute_o $end
$var reg 1 : is_branch_o $end
$var reg 1 9 is_conditional_o $end
$var reg 1 8 is_imm_rs1_o $end
$var reg 1 7 is_imm_rs2_o $end
$var reg 1 6 is_load_store $end
$var reg 1 5 mem_to_reg $end
$var reg 1 # mem_w $end
$var reg 7 R opcode [6:0] $end
$var reg 5 S r1_addr [4:0] $end
$var reg 5 T r2_addr [4:0] $end
$var reg 5 U rd [4:0] $end
$var reg 5 V reg_addr [4:0] $end
$var reg 1 ) reg_r $end
$var reg 5 W rs1 [4:0] $end
$var reg 5 X rs2 [4:0] $end
$upscope $end
$scope module exec_unit_inst $end
$var wire 4 Y ALU_op [3:0] $end
$var wire 2 Z BR_op [1:0] $end
$var wire 3 [ LIS_op [2:0] $end
$var wire 1 : is_branch_i $end
$var wire 1 9 is_conditional_i $end
$var wire 1 6 is_loadstore $end
$var wire 1 \ zero_alu_result $end
$var wire 32 ] val_mem_data_write_o [31:0] $end
$var wire 32 ^ val_mem_data_read_i [31:0] $end
$var wire 32 _ s2_ALU [31:0] $end
$var wire 32 ` s2 [31:0] $end
$var wire 32 a s1 [31:0] $end
$var wire 32 b rs2 [31:0] $end
$var wire 10 c old_pc_i [9:0] $end
$var wire 32 d new_pc_offset_o [31:0] $end
$var wire 32 e mem_o [31:0] $end
$var wire 32 f alu_o [31:0] $end
$var wire 10 g addr_mem_data_o [9:0] $end
$var reg 32 h d [31:0] $end
$scope module ALU $end
$var wire 4 i ALU_op [3:0] $end
$var wire 32 j s2 [31:0] $end
$var wire 1 \ zero_o $end
$var wire 5 k shift [4:0] $end
$var wire 32 l s1 [31:0] $end
$var reg 32 m d [31:0] $end
$upscope $end
$scope module BR $end
$var wire 1 \ ALU_zero_i $end
$var wire 2 n BR_op_i [1:0] $end
$var wire 32 o alu_d [31:0] $end
$var wire 1 9 is_conditional_i $end
$var wire 32 p old_pc_i [31:0] $end
$var wire 32 q new_pc_o [31:0] $end
$var wire 32 r new_pc_i [31:0] $end
$var reg 32 s offset [31:0] $end
$upscope $end
$scope module LIS $end
$var wire 3 t LIS_op [2:0] $end
$var wire 32 u addr_mem_i [31:0] $end
$var wire 32 v val_mem_write_i [31:0] $end
$var wire 32 w val_mem_read_i [31:0] $end
$var wire 10 x addr_mem_o [9:0] $end
$var reg 32 y val_mem_read_o [31:0] $end
$var reg 32 z val_mem_write_o [31:0] $end
$upscope $end
$upscope $end
$scope module mux_rs1_exec_inst $end
$var wire 32 { b [31:0] $end
$var wire 1 8 select $end
$var wire 32 | out [31:0] $end
$var wire 32 } a [31:0] $end
$upscope $end
$scope module mux_rs2_exec_inst $end
$var wire 32 ~ b [31:0] $end
$var wire 1 7 select $end
$var wire 32 !" out [31:0] $end
$var wire 32 "" a [31:0] $end
$upscope $end
$scope module program_counter_inst $end
$var wire 1 ! clk $end
$var wire 1 ; is_absolute_i $end
$var wire 1 : is_branch_i $end
$var wire 10 #" offset_i [9:0] $end
$var wire 1 " rst_n $end
$var wire 10 $" offset [9:0] $end
$var reg 10 %" addr [9:0] $end
$upscope $end
$scope module reg_file_inst $end
$var wire 1 ! clk $end
$var wire 32 &" data_in [31:0] $end
$var wire 5 '" r1_num_read [4:0] $end
$var wire 5 (" r2_num_read [4:0] $end
$var wire 5 )" r_num_write [4:0] $end
$var wire 1 " rst_n $end
$var wire 1 ) we $end
$var wire 32 *" rs2 [31:0] $end
$var wire 32 +" rs1 [31:0] $end
$scope begin REG $end
$var integer 32 ," j [31:0] $end
$upscope $end
$upscope $end
$upscope $end
$scope module mem_data_inst $end
$var wire 10 -" addr [9:0] $end
$var wire 1 ! clk $end
$var wire 32 ." data_in [31:0] $end
$var wire 1 " rst_n $end
$var wire 1 # we $end
$var wire 32 /" data_out [31:0] $end
$scope begin MEM_WRITE $end
$var integer 32 0" j [31:0] $end
$upscope $end
$upscope $end
$scope module mem_prog_inst $end
$var wire 10 1" addr [9:0] $end
$var wire 1 ! clk $end
$var wire 1 " rst_n $end
$var reg 32 2" data_out [31:0] $end
$scope begin MEM_READ $end
$var integer 32 3" j [31:0] $end
$upscope $end
$upscope $end
$upscope $end
$upscope $end
$upscope $end
$enddefinitions $end
#0
$dumpvars
b10000000000 3"
bx 2"
b0 1"
b10000000000 0"
bx /"
bx ."
bx -"
b100000 ,"
bx +"
bx *"
bx )"
bx ("
bx '"
bx &"
b0 %"
b100 $"
bx #"
bx ""
bx !"
bx ~
bx }
bx |
bx {
bx z
bx y
bx x
bx w
bx v
bx u
bx t
bx s
bx r
bx q
b0 p
bx o
bx n
bx m
bx l
bx k
bx j
bx i
bx h
bx g
bx f
bx e
bx d
b0 c
bx b
bx a
bx `
bx _
bx ^
bx ]
x\
bx [
bx Z
bx Y
bx X
bx W
bx V
bx U
bx T
bx S
bx R
bx Q
bx P
bx O
bx N
bx M
bx L
bx K
bx J
bx I
bx H
bx G
bx F
bx E
b0 D
bx C
bx B
bx A
bx @
b0 ?
bx >
bx =
bx <
0;
0:
09
08
07
06
05
bx 4
bx 3
bx 2
bx 1
bx 0
bx /
bx .
bx -
bx ,
bx +
bx *
0)
bx (
b0 '
bx &
bx %
bx $
0#
0"
0!
$end
#50000
b10000000000 3"
b10000000000 0"
b100000 ,"
1!
#100000
0!
1"
#150000
b100 p
b100 '
b100 ?
b100 D
b100 c
b100 %"
b100 1"
0\
b101 #"
b0 &
b0 ,
b0 ^
b0 w
b0 /"
b101 4
b101 d
b101 q
b101 (
b101 @
b101 g
b101 x
b101 -"
b101 >
b101 h
b101 &"
b101 k
b101 f
b101 m
b101 o
b101 u
b101 _
b101 j
b0 0
b0 a
b0 l
b0 |
b101 .
b101 `
b101 r
b101 !"
b0 /
b0 }
b0 +"
b0 C
b0 F
b0 Y
b0 i
b11 1
b11 V
b11 )"
b0 3
b0 S
b0 '"
1)
b101 <
b101 Q
b101 ~
17
b101 X
b0 W
b11 M
b10000000001 L
b10000000010 O
b11 U
b101 K
b10100000000 N
b0 I
b0 J
b10011 R
b10100000000000110010011 $
b10100000000000110010011 *
b10100000000000110010011 E
b10100000000000110010011 2"
1!
#200000
0!
#250000
b1000 p
b1000 '
b1000 ?
b1000 D
b1000 c
b1000 %"
b1000 1"
b10 #"
b10001000100010001000100010001 &
b10001000100010001000100010001 ,
b10001000100010001000100010001 ^
b10001000100010001000100010001 w
b10001000100010001000100010001 /"
b10 4
b10 d
b10 q
b10 (
b10 @
b10 g
b10 x
b10 -"
b10 >
b10 h
b10 &"
b10 f
b10 m
b10 o
b10 u
b10 k
b10 _
b10 j
b10 .
b10 `
b10 r
b10 !"
b100 1
b100 V
b100 )"
b10 <
b10 Q
b10 ~
b10 X
b100 M
b10 L
b1 O
b100 U
b10 K
b1000000000 N
1)
17
b1000000000001000010011 $
b1000000000001000010011 *
b1000000000001000010011 E
b1000000000001000010011 2"
1!
#300000
0!
#350000
b1100 p
b1100 '
b1100 ?
b1100 D
b1100 c
b1100 %"
b1100 1"
b111 #"
b0 &
b0 ,
b0 ^
b0 w
b0 /"
b111 4
b111 d
b111 q
b111 (
b111 @
b111 g
b111 x
b111 -"
b111 >
b111 h
b111 &"
b10 k
b111 f
b111 m
b111 o
b111 u
b10 _
b10 j
b101 0
b101 a
b101 l
b101 |
b10 .
b10 `
b10 r
b10 !"
b10 -
b10 b
b10 v
b10 ""
b10 *"
b101 /
b101 }
b101 +"
b101 1
b101 V
b101 )"
b100 2
b100 T
b100 ("
b11 3
b11 S
b11 '"
b100 X
b11 W
b101 M
b10000000010 L
b1100000000000010 O
b101 U
b100 K
b10000011000 N
b110011 R
1)
07
b10000011000001010110011 $
b10000011000001010110011 *
b10000011000001010110011 E
b10000011000001010110011 2"
1!
#400000
0!
#450000
b10000 p
b10000 '
b10000 ?
b10000 D
b10000 c
b10000 %"
b10000 1"
b0 X
b0 W
b0 M
b0 L
b0 O
b0 U
b0 K
b0 N
b0 R
0)
b0 $
b0 *
b0 E
b0 2"
1!
#500000
1\
b0 #"
b0 k
b0 4
b0 d
b0 q
b0 (
b0 @
b0 g
b0 x
b0 -"
b0 >
b0 h
b0 &"
b0 _
b0 j
b0 f
b0 m
b0 o
b0 u
b0 .
b0 `
b0 r
b0 !"
b0 0
b0 a
b0 l
b0 |
b0 -
b0 b
b0 v
b0 ""
b0 *"
b0 /
b0 }
b0 +"
b0 p
b0 '
b0 ?
b0 D
b0 c
b0 %"
b0 1"
b10000000000 3"
b10000000000 0"
b100000 ,"
0!
0"
#550000
b10000000000 3"
b10000000000 0"
b100000 ,"
1!
#600000
0!
1"
#650000
b100 p
b100 '
b100 ?
b100 D
b100 c
b100 %"
b100 1"
0\
b1111111111 #"
bx &
bx ,
bx ^
bx w
bx /"
b11111111111111111111111111111111 4
b11111111111111111111111111111111 d
b11111111111111111111111111111111 q
b1111111111 (
b1111111111 @
b1111111111 g
b1111111111 x
b1111111111 -"
b11111111111111111111111111111111 >
b11111111111111111111111111111111 h
b11111111111111111111111111111111 &"
b11111111111111111111111111111111 f
b11111111111111111111111111111111 m
b11111111111111111111111111111111 o
b11111111111111111111111111111111 u
b11111 k
b11111111111111111111111111111111 _
b11111111111111111111111111111111 j
b11111111111111111111111111111111 .
b11111111111111111111111111111111 `
b11111111111111111111111111111111 r
b11111111111111111111111111111111 !"
b11 1
b11 V
b11 )"
b0 3
b0 S
b0 '"
1)
b11111111111111111111111111111111 <
b11111111111111111111111111111111 Q
b11111111111111111111111111111111 ~
17
b11111 X
b111111100011 M
b111111110001 L
b10000000011111111111 O
b11 U
b111111111111 K
b11111111111100000000 N
b1111111 J
b10011 R
b11111111111100000000000110010011 $
b11111111111100000000000110010011 *
b11111111111100000000000110010011 E
b11111111111100000000000110010011 2"
1!
#700000
0!
#750000
b1000 p
b1000 '
b1000 ?
b1000 D
b1000 c
b1000 %"
b1000 1"
b11111111 #"
b0 &
b0 ,
b0 ^
b0 w
b0 /"
b11111111 4
b11111111 d
b11111111 q
b11111111 (
b11111111 @
b11111111 g
b11111111 x
b11111111 -"
b11111111 >
b11111111 h
b11111111 &"
b11111111 f
b11111111 m
b11111111 o
b11111111 u
b11111111 _
b11111111 j
b11111111 .
b11111111 `
b11111111 r
b11111111 !"
b100 1
b100 V
b100 )"
b11111111 <
b11111111 Q
b11111111 ~
b11100100 M
b1110010 L
b10001111111 O
b100 U
b11111111 K
b1111111100000000 N
b111 J
1)
17
b1111111100000000001000010011 $
b1111111100000000001000010011 *
b1111111100000000001000010011 E
b1111111100000000001000010011 2"
1!
#800000
0!
#850000
b11111111 -
b11111111 b
b11111111 v
b11111111 ""
b11111111 *"
b1100 p
b1100 '
b1100 ?
b1100 D
b1100 c
b1100 %"
b1100 1"
b11111 k
0\
b11111111 #"
b11111111 _
b11111111 j
b11111111 4
b11111111 d
b11111111 q
b11111111 (
b11111111 @
b11111111 g
b11111111 x
b11111111 -"
b11111111 >
b11111111 h
b11111111 &"
b11111111111111111111111111111111 0
b11111111111111111111111111111111 a
b11111111111111111111111111111111 l
b11111111111111111111111111111111 |
b11111111 .
b11111111 `
b11111111 r
b11111111 !"
b11111111 f
b11111111 m
b11111111 o
b11111111 u
b11111111111111111111111111111111 /
b11111111111111111111111111111111 }
b11111111111111111111111111111111 +"
b1001 C
b1001 F
b1001 Y
b1001 i
b101 1
b101 V
b101 )"
b11 3
b11 S
b11 '"
b100 X
b11 W
b101 M
b10000000010 L
b1111100000000010 O
b101 U
b100 K
b10000011111 N
b111 I
b0 J
b110011 R
1)
07
b10000011111001010110011 $
b10000011111001010110011 *
b10000011111001010110011 E
b10000011111001010110011 2"
1!
#900000
0!
#950000
b10000 p
b10000 '
b10000 ?
b10000 D
b10000 c
b10000 %"
b10000 1"
b0 X
b0 W
b0 M
b0 L
b0 O
b0 U
b0 K
b0 N
b0 I
b0 R
0)
b0 $
b0 *
b0 E
b0 2"
1!
#1000000
1\
b0 #"
b0 k
b0 4
b0 d
b0 q
b0 (
b0 @
b0 g
b0 x
b0 -"
b0 >
b0 h
b0 &"
b0 _
b0 j
b0 f
b0 m
b0 o
b0 u
b0 .
b0 `
b0 r
b0 !"
b0 0
b0 a
b0 l
b0 |
b0 -
b0 b
b0 v
b0 ""
b0 *"
b0 /
b0 }
b0 +"
b0 p
b0 '
b0 ?
b0 D
b0 c
b0 %"
b0 1"
b10000000000 3"
b10000000000 0"
b100000 ,"
0!
0"
#1050000
b10000000000 3"
b10000000000 0"
b100000 ,"
1!
#1100000
0!
1"
#1150000
b100 p
b100 '
b100 ?
b100 D
b100 c
b100 %"
b100 1"
0\
b1000100 #"
b10001000100 4
b10001000100 d
b10001000100 q
b1000100 (
b1000100 @
b1000100 g
b1000100 x
b1000100 -"
b10001000100 >
b10001000100 h
b10001000100 &"
b10001000100 f
b10001000100 m
b10001000100 o
b10001000100 u
b100 k
b10001000100 _
b10001000100 j
b10001000100 .
b10001000100 `
b10001000100 r
b10001000100 !"
b0 C
b0 F
b0 Y
b0 i
b11 1
b11 V
b11 )"
b0 3
b0 S
b0 '"
1)
b10001000100 <
b10001000100 Q
b10001000100 ~
17
b100 X
b10001000011 M
b11000100001 L
b1000100010 O
b11 U
b10001000100 K
b1000100010000000000 N
b100010 J
b10011 R
b1000100010000000000000110010011 $
b1000100010000000000000110010011 *
b1000100010000000000000110010011 E
b1000100010000000000000110010011 2"
1!
#1200000
0!
#1250000
b10001000100 0
b10001000100 a
b10001000100 l
b10001000100 |
b10001000100 /
b10001000100 }
b10001000100 +"
b1000 p
b1000 '
b1000 ?
b1000 D
b1000 c
b1000 %"
b1000 1"
0\
b100 #"
b1111 k
b10000000100 4
b10000000100 d
b10000000100 q
b100 (
b100 @
b100 g
b100 x
b100 -"
b10000000100 >
b10000000100 h
b10000000100 &"
b11111111111111111111111100001111 _
b11111111111111111111111100001111 j
b10000000100 f
b10000000100 m
b10000000100 o
b10000000100 u
b11111111111111111111111100001111 .
b11111111111111111111111100001111 `
b11111111111111111111111100001111 r
b11111111111111111111111100001111 !"
b1001 C
b1001 F
b1001 Y
b1001 i
b101 1
b101 V
b101 )"
b11 3
b11 S
b11 '"
b11111111111111111111111100001111 <
b11111111111111111111111100001111 Q
b11111111111111111111111100001111 ~
b1111 X
b11 W
b111100000101 M
b111110000010 L
b10001111111110000111 O
b101 U
b111100001111 K
b11110000111100011111 N
b111 I
b1111000 J
1)
17
b11110000111100011111001010010011 $
b11110000111100011111001010010011 *
b11110000111100011111001010010011 E
b11110000111100011111001010010011 2"
1!
#1300000
0!
#1350000
b1100 p
b1100 '
b1100 ?
b1100 D
b1100 c
b1100 %"
b1100 1"
1\
b0 #"
b0 4
b0 d
b0 q
b0 (
b0 @
b0 g
b0 x
b0 -"
b0 >
b0 h
b0 &"
b0 f
b0 m
b0 o
b0 u
b0 k
b0 _
b0 j
b0 .
b0 `
b0 r
b0 !"
b0 X
b0 W
b0 M
b0 L
b0 O
b0 U
b0 K
b0 N
b0 I
b0 J
b0 R
0)
07
b0 $
b0 *
b0 E
b0 2"
1!
#1400000
b0 0
b0 a
b0 l
b0 |
b0 /
b0 }
b0 +"
b0 p
b0 '
b0 ?
b0 D
b0 c
b0 %"
b0 1"
b10000000000 3"
b10000000000 0"
b100000 ,"
0!
0"
#1450000
b10000000000 3"
b10000000000 0"
b100000 ,"
1!
#1500000
0!
1"
#1550000
b100 p
b100 '
b100 ?
b100 D
b100 c
b100 %"
b100 1"
0\
b11 #"
b11 4
b11 d
b11 q
b11 (
b11 @
b11 g
b11 x
b11 -"
b11 >
b11 h
b11 &"
b11 f
b11 m
b11 o
b11 u
b11 k
b11 _
b11 j
b11 .
b11 `
b11 r
b11 !"
b0 C
b0 F
b0 Y
b0 i
b11 1
b11 V
b11 )"
b0 3
b0 S
b0 '"
1)
b11 <
b11 Q
b11 ~
17
b11 X
b11 M
b10000000001 L
b10000000001 O
b11 U
b11 K
b1100000000 N
b10011 R
b1100000000000110010011 $
b1100000000000110010011 *
b1100000000000110010011 E
b1100000000000110010011 2"
1!
#1600000
0!
#1650000
b11 0
b11 a
b11 l
b11 |
b11 /
b11 }
b11 +"
b1000 p
b1000 '
b1000 ?
b1000 D
b1000 c
b1000 %"
b1000 1"
0\
b1100 #"
b10 k
b1100 4
b1100 d
b1100 q
b1100 (
b1100 @
b1100 g
b1100 x
b1100 -"
b1100 >
b1100 h
b1100 &"
b10 _
b10 j
b1100 f
b1100 m
b1100 o
b1100 u
b10 .
b10 `
b10 r
b10 !"
b10 C
b10 F
b10 Y
b10 i
b101 1
b101 V
b101 )"
b11 3
b11 S
b11 '"
b10 <
b10 Q
b10 ~
b10 X
b11 W
b101 M
b10000000010 L
b1100100000000001 O
b101 U
b10 K
b1000011001 N
b1 I
1)
17
b1000011001001010010011 $
b1000011001001010010011 *
b1000011001001010010011 E
b1000011001001010010011 2"
1!
#1700000
0!
#1750000
b1100 p
b1100 '
b1100 ?
b1100 D
b1100 c
b1100 %"
b1100 1"
b11 #"
b11 4
b11 d
b11 q
b11 (
b11 @
b11 g
b11 x
b11 -"
b11 >
b11 h
b11 &"
b11 f
b11 m
b11 o
b11 u
b0 k
b0 _
b0 j
b0 .
b0 `
b0 r
b0 !"
b0 X
b0 W
b0 M
b0 L
b0 O
b0 U
b0 K
b0 N
b0 I
b0 R
0)
07
b0 $
b0 *
b0 E
b0 2"
1!
#1800000
1\
b0 #"
b0 4
b0 d
b0 q
b0 (
b0 @
b0 g
b0 x
b0 -"
b0 >
b0 h
b0 &"
b0 f
b0 m
b0 o
b0 u
b0 0
b0 a
b0 l
b0 |
b0 /
b0 }
b0 +"
b0 p
b0 '
b0 ?
b0 D
b0 c
b0 %"
b0 1"
b10000000000 3"
b10000000000 0"
b100000 ,"
0!
0"
#1850000
b10000000000 3"
b10000000000 0"
b100000 ,"
1!
#1900000
0!
1"
#1950000
b100 p
b100 '
b100 ?
b100 D
b100 c
b100 %"
b100 1"
0\
b1111111100 #"
bx &
bx ,
bx ^
bx w
bx /"
b11111111111111111111111111111100 4
b11111111111111111111111111111100 d
b11111111111111111111111111111100 q
b1111111100 (
b1111111100 @
b1111111100 g
b1111111100 x
b1111111100 -"
b11111111111111111111111111111100 >
b11111111111111111111111111111100 h
b11111111111111111111111111111100 &"
b11111111111111111111111111111100 f
b11111111111111111111111111111100 m
b11111111111111111111111111111100 o
b11111111111111111111111111111100 u
b11100 k
b11111111111111111111111111111100 _
b11111111111111111111111111111100 j
b11111111111111111111111111111100 .
b11111111111111111111111111111100 `
b11111111111111111111111111111100 r
b11111111111111111111111111111100 !"
b0 C
b0 F
b0 Y
b0 i
b11 1
b11 V
b11 )"
b0 3
b0 S
b0 '"
1)
b11111111111111111111111111111100 <
b11111111111111111111111111111100 Q
b11111111111111111111111111111100 ~
17
b11100 X
b111111100011 M
b111111110001 L
b10000000001111111110 O
b11 U
b111111111100 K
b11111111110000000000 N
b1111111 J
b10011 R
b11111111110000000000000110010011 $
b11111111110000000000000110010011 *
b11111111110000000000000110010011 E
b11111111110000000000000110010011 2"
1!
#2000000
0!
#2050000
b11111111111111111111111111111100 0
b11111111111111111111111111111100 a
b11111111111111111111111111111100 l
b11111111111111111111111111111100 |
b11111111111111111111111111111100 /
b11111111111111111111111111111100 }
b11111111111111111111111111111100 +"
b1000 p
b1000 '
b1000 ?
b1000 D
b1000 c
b1000 %"
b1000 1"
0\
b1 #"
b0 &
b0 ,
b0 ^
b0 w
b0 /"
b1000 k
b1 4
b1 d
b1 q
b1 (
b1 @
b1 g
b1 x
b1 -"
b1 >
b1 h
b1 &"
b1000 _
b1000 j
b1 f
b1 m
b1 o
b1 u
b1000 .
b1000 `
b1000 r
b1000 !"
b11 C
b11 F
b11 Y
b11 i
b101 1
b101 V
b101 )"
b11 3
b11 S
b11 '"
b1000 <
b1000 Q
b1000 ~
b1000 X
b11 W
b101 M
b10000000010 L
b1101000000000100 O
b101 U
b1000 K
b100000011010 N
b10 I
b0 J
1)
17
b100000011010001010010011 $
b100000011010001010010011 *
b100000011010001010010011 E
b100000011010001010010011 2"
1!
#2100000
0!
#2150000
b1100 p
b1100 '
b1100 ?
b1100 D
b1100 c
b1100 %"
b1100 1"
b11111 k
b11111111111111111111111111111111 _
b11111111111111111111111111111111 j
b11111111111111111111111111111111 .
b11111111111111111111111111111111 `
b11111111111111111111111111111111 r
b11111111111111111111111111111111 !"
b110 1
b110 V
b110 )"
b11111111111111111111111111111111 <
b11111111111111111111111111111111 Q
b11111111111111111111111111111111 ~
b11111 X
b111111100110 M
b101111110011 L
b10001101011111111111 O
b110 U
b111111111111 K
b11111111111100011010 N
b1111111 J
1)
17
b11111111111100011010001100010011 $
b11111111111100011010001100010011 *
b11111111111100011010001100010011 E
b11111111111100011010001100010011 2"
1!
#2200000
0!
#2250000
b10000 p
b10000 '
b10000 ?
b10000 D
b10000 c
b10000 %"
b10000 1"
b0 k
b0 _
b0 j
b0 .
b0 `
b0 r
b0 !"
b0 X
b0 W
b0 M
b0 L
b0 O
b0 U
b0 K
b0 N
b0 I
b0 J
b0 R
0)
07
b0 $
b0 *
b0 E
b0 2"
1!
#2300000
1\
b0 #"
b0 4
b0 d
b0 q
b0 (
b0 @
b0 g
b0 x
b0 -"
b0 >
b0 h
b0 &"
b0 f
b0 m
b0 o
b0 u
b0 0
b0 a
b0 l
b0 |
b0 /
b0 }
b0 +"
b0 p
b0 '
b0 ?
b0 D
b0 c
b0 %"
b0 1"
b10000000000 3"
b10000000000 0"
b100000 ,"
0!
0"
#2350000
b10000000000 3"
b10000000000 0"
b100000 ,"
1!
#2400000
0!
1"
#2450000
b100 p
b100 '
b100 ?
b100 D
b100 c
b100 %"
b100 1"
0\
b1111111100 #"
bx &
bx ,
bx ^
bx w
bx /"
b11111111111111111111111111111100 4
b11111111111111111111111111111100 d
b11111111111111111111111111111100 q
b1111111100 (
b1111111100 @
b1111111100 g
b1111111100 x
b1111111100 -"
b11111111111111111111111111111100 >
b11111111111111111111111111111100 h
b11111111111111111111111111111100 &"
b11111111111111111111111111111100 f
b11111111111111111111111111111100 m
b11111111111111111111111111111100 o
b11111111111111111111111111111100 u
b11100 k
b11111111111111111111111111111100 _
b11111111111111111111111111111100 j
b11111111111111111111111111111100 .
b11111111111111111111111111111100 `
b11111111111111111111111111111100 r
b11111111111111111111111111111100 !"
b0 C
b0 F
b0 Y
b0 i
b11 1
b11 V
b11 )"
b0 3
b0 S
b0 '"
1)
b11111111111111111111111111111100 <
b11111111111111111111111111111100 Q
b11111111111111111111111111111100 ~
17
b11100 X
b111111100011 M
b111111110001 L
b10000000001111111110 O
b11 U
b111111111100 K
b11111111110000000000 N
b1111111 J
b10011 R
b11111111110000000000000110010011 $
b11111111110000000000000110010011 *
b11111111110000000000000110010011 E
b11111111110000000000000110010011 2"
1!
#2500000
0!
#2550000
b11111111111111111111111111111100 0
b11111111111111111111111111111100 a
b11111111111111111111111111111100 l
b11111111111111111111111111111100 |
b11111111111111111111111111111100 /
b11111111111111111111111111111100 }
b11111111111111111111111111111100 +"
b1000 p
b1000 '
b1000 ?
b1000 D
b1000 c
b1000 %"
b1000 1"
b1 #"
b0 &
b0 ,
b0 ^
b0 w
b0 /"
b11111 k
b1 4
b1 d
b1 q
b1 (
b1 @
b1 g
b1 x
b1 -"
b1 >
b1 h
b1 &"
b11111111111111111111111111111111 _
b11111111111111111111111111111111 j
b1 f
b1 m
b1 o
b1 u
b11111111111111111111111111111111 .
b11111111111111111111111111111111 `
b11111111111111111111111111111111 r
b11111111111111111111111111111111 !"
b100 C
b100 F
b100 Y
b100 i
b101 1
b101 V
b101 )"
b11 3
b11 S
b11 '"
b11111111111111111111111111111111 <
b11111111111111111111111111111111 Q
b11111111111111111111111111111111 ~
b11111 X
b11 W
b111111100101 M
b111111110010 L
b10001101111111111111 O
b101 U
b111111111111 K
b11111111111100011011 N
b11 I
1)
17
b11111111111100011011001010010011 $
b11111111111100011011001010010011 *
b11111111111100011011001010010011 E
b11111111111100011011001010010011 2"
1!
#2600000
0!
#2650000
b1100 p
b1100 '
b1100 ?
b1100 D
b1100 c
b1100 %"
b1100 1"
1\
b0 #"
b0 4
b0 d
b0 q
b0 (
b0 @
b0 g
b0 x
b0 -"
b0 >
b0 h
b0 &"
b0 f
b0 m
b0 o
b0 u
b1000 k
b1000 _
b1000 j
b1000 .
b1000 `
b1000 r
b1000 !"
b11 1
b11 V
b11 )"
b1000 <
b1000 Q
b1000 ~
b1000 X
b11 M
b10000000001 L
b1101100000000100 O
b11 U
b1000 K
b100000011011 N
b0 J
1)
17
b100000011011000110010011 $
b100000011011000110010011 *
b100000011011000110010011 E
b100000011011000110010011 2"
1!
#2700000
0!
#2750000
b0 0
b0 a
b0 l
b0 |
b0 /
b0 }
b0 +"
b10000 p
b10000 '
b10000 ?
b10000 D
b10000 c
b10000 %"
b10000 1"
b0 k
b0 _
b0 j
b0 .
b0 `
b0 r
b0 !"
b0 X
b0 W
b0 M
b0 L
b0 O
b0 U
b0 K
b0 N
b0 I
b0 R
0)
07
b0 $
b0 *
b0 E
b0 2"
1!
